{
  "$schema": "https://schema.management.azure.com/schemas/2015-01-01/deploymentTemplate.json#",
  "contentVersion": "1.0.0.0",
  "parameters": {
    "location": {
      "type": "string",
      "metadata": {
        "Description": "The region where resources will be provisioned."
      },
      "allowedValues": [
        "Central US",
        "East Asia",
        "East US",
        "East US 2",
        "Japan East",
        "Japan West",
        "North Europe",
        "South Central US",
        "Southeast Asia",
        "West Europe",
        "West US"
      ]
    },
    "storageAccountName": {
      "type": "string",
      "metadata": {
        "Description": "Storage account names must be unique in Azure, be between 3 and 24 characters in length and use numbers and lower-case letters only."
      }
    },
    "storageAccountType": {
      "type": "string",
      "metadata": {
        "Description": "The type of the storage account to be created."
      },
      "allowedValues": [
        "Standard_LRS",
        "Standard_GRS",
        "Standard_RAGRS",
        "Standard_ZRS",
        "Premium_LRS"
      ]
    }
  },
  "resources": [
    {
      "name": "[parameters('storageAccountName')]",
      "type": "Microsoft.Storage/storageAccounts",
      "apiVersion": "2015-06-15",
      "location": "[parameters('location')]",
      "properties": {
        "accountType": "[parameters('storageAccountType')]"
      }
    }
  ]
}