{
  "$schema": "https://schema.management.azure.com/schemas/2015-01-01/deploymentTemplate.json#",
  "contentVersion": "1.0.0.0",
  "parameters": {
    "location": {
      "type": "string",
      "metadata": {
        "Description": "The region where resources will be provisioned."
      },
      "allowedValues": [
        "Central US",
        "East Asia",
        "East US",
        "East US 2",
        "Japan East",
        "Japan West",
        "North Europe",
        "South Central US",
        "Southeast Asia",
        "West Europe",
        "West US"
      ]
    },
    "virtualNetworkName": {
      "type": "string",
      "metadata": {
        "Description": "The name of the virtual network to be provisioned."
      }
    },
    "virtualNetworkAddressRange": {
      "type": "string",
      "metadata": {
        "Description": "The network address range of the virtual network in CIDR notation."
      },
      "defaultValue": "10.0.0.0/16"
    },
    "subnets": {
      "type": "array",
      "metadata": {
        "Description": "The subnet definition for the virtual network."
      }
    }
  },
  "resources": [
    {
      "name": "[parameters('virtualNetworkName')]",
      "type": "Microsoft.Network/virtualNetworks",
      "apiVersion": "2015-06-15",
      "location": "[parameters('location')]",
      "properties": {
        "addressSpace": {
          "addressPrefixes": [
            "[parameters('virtualNetworkAddressRange')]"
          ]
        },
        "subnets": "[parameters('subnets')]"
      }
    }
  ]
}