{
    "$schema": "https://schema.management.azure.com/schemas/2015-01-01/deploymentTemplate.json#",
    "contentVersion": "1.0.0.0",
	"parameters": {
		"commonSettings": {
			"type": "object",
			"metadata": {
				"Description": "Common settings object. Required parameters: location."
			}
		},
		"networkSettings": {
			"type": "object",
			"metadata": {
				"Description": "Network settings object. Required parameters: virtualNetworkName, subnetName."
			}
		},
		"nicSettings": {
			"type": "object",
			"metadata": {
				"Description": "Network interface card object. Required parameters: nicName, publicIPAddressName, publicIPAddressDnsName."
			}
		}
	},
	"variables": {
		"publicIPAddressType": "Dynamic",
		"ipconfigName": "ipconfig1",
		"ipconfigType": "Dynamic",
        "vnetID": "[resourceId('Microsoft.Network/virtualNetworks',parameters('networkSettings').virtualNetworkName)]",
        "subnetRef": "[concat(variables('vnetID'),'/subnets/',parameters('networkSettings').subnetName)]"
    },
	"resources": [
		{
            "apiVersion": "2015-05-01-preview",
            "type": "Microsoft.Network/publicIPAddresses",
            "name": "[parameters('nicSettings').publicIPAddressName]",
            "location": "[parameters('commonSettings').location]",
            "tags": {
                "displayName": "PublicIPAddress"
            },
            "properties": {
                "publicIPAllocationMethod": "[variables('publicIPAddressType')]",
                "dnsSettings": {
                    "domainNameLabel": "[parameters('nicSettings').publicIPAddressDnsName]"
                }
            }
        },
		{
            "apiVersion": "2015-05-01-preview",
            "type": "Microsoft.Network/networkInterfaces",
            "name": "[parameters('nicSettings').nicName]",
            "location": "[parameters('commonSettings').location]",
            "tags": {
                "displayName": "NetworkInterface"
            },
            "dependsOn": [
                "[concat('Microsoft.Network/publicIPAddresses/', parameters('nicSettings').publicIPAddressName)]"
            ],
            "properties": {
                "ipConfigurations": [
                    {
                        "name": "[variables('ipconfigName')]",
                        "properties": {
							"privateIPAllocationMethod": "[variables('ipconfigType')]",
                            "publicIPAddress": {
                                "id": "[resourceId('Microsoft.Network/publicIPAddresses',parameters('nicSettings').publicIPAddressName)]"
                            },
                            "subnet": {
                                "id": "[variables('subnetRef')]"
                            }
                        }
                    }
                ]
            }
        }
	]
}